{
  "1": {
    "sortf": 0,
    "did": 1,
    "latexPre": "\\documentclass[12pt]{article}\n\\special{papersize=3in,5in}\n\\usepackage[utf8]{inputenc}\n\\usepackage{amssymb,amsmath}\n\\pagestyle{empty}\n\\setlength{\\parindent}{0in}\n\begin{document}\n",
    "latexPost": "\\end{document}",
    "mod": 0,
    "usn": -1,
    "vers": [],
    "type": 1,
    "css": ".card {\n font-family: arial;\n font-size: 20px;\n text-align: center;\n color: black;\n background-color: white;\n}\n\n.cloze {\n font-weight: bold;\n color: blue;\n}\n.nightMode .cloze {\n color: lightblue;\n}",
    "name": "Cloze",
    "flds": [
      {
        "name": "Text",
        "ord": 0,
        "sticky": false,
        "rtl": false,
        "font": "Arial",
        "size": 20,
        "media": []
      }
    ],
    "tmpls": [
      {
        "name": "Cloze",
        "ord": 0,
        "qfmt": "{{cloze:Text}}",
        "afmt": "{{cloze:Text}}",
        "did": null,
        "bqfmt": "",
        "bafmt": ""
      }
    ],
    "tags": [],
    "id": "1",
    "req": [
      [
        0,
        "any",
        [
          0
        ]
      ]
    ]
  },
  "2": {
    "sortf": 0,
    "did": 1,
    "latexPre": "\\documentclass[12pt]{article}\n\\special{papersize=3in,5in}\n\\usepackage[utf8]{inputenc}\n\\usepackage{amssymb,amsmath}\n\\pagestyle{empty}\n\\setlength{\\parindent}{0in}\n\begin{document}\n",
    "latexPost": "\\end{document}",
    "mod": 0,
    "usn": -1,
    "vers": [],
    "type": 0,
    "css": ".card {\n font-family: arial;\n font-size: 20px;\n text-align: center;\n color: black;\n background-color: white;\n}\n",
    "name": "Basic (type in the answer)",
    "flds": [
      {
        "name": "Front",
        "ord": 0,
        "sticky": false,
        "rtl": false,
        "font": "Arial",
        "size": 20,
        "media": []
      },
      {
        "name": "Back",
        "ord": 1,
        "sticky": false,
        "rtl": false,
        "font": "Arial",
        "size": 20,
        "media": []
      }
    ],
    "tmpls": [
      {
        "name": "Card 1",
        "ord": 0,
        "qfmt": "{{Front}}\n\n{{type:Back}}",
        "afmt": "{{Front}}\n\n<hr id=answer>\n\n{{type:Back}}",
        "did": null,
        "bqfmt": "",
        "bafmt": ""
      }
    ],
    "tags": [],
    "id": "2",
    "req": [
      [
        0,
        "any",
        [
          0
        ]
      ]
    ]
  },
  "3": {
    "sortf": 0,
    "did": 1,
    "latexPre": "\\documentclass[12pt]{article}\n\\special{papersize=3in,5in}\n\\usepackage[utf8]{inputenc}\n\\usepackage{amssymb,amsmath}\n\\pagestyle{empty}\n\\setlength{\\parindent}{0in}\n\begin{document}\n",
    "latexPost": "\\end{document}",
    "mod": 0,
    "usn": -1,
    "vers": [],
    "type": 0,
    "css": ".card {\n font-family: arial;\n font-size: 20px;\n text-align: center;\n color: black;\n background-color: white;\n}\n",
    "name": "Basic (optional reversed card)",
    "flds": [
      {
        "name": "Front",
        "ord": 0,
        "sticky": false,
        "rtl": false,
        "font": "Arial",
        "size": 20,
        "media": []
      },
      {
        "name": "Back",
        "ord": 1,
        "sticky": false,
        "rtl": false,
        "font": "Arial",
        "size": 20,
        "media": []
      },
      {
        "name": "Add Reverse",
        "ord": 2,
        "sticky": false,
        "rtl": false,
        "font": "Arial",
        "size": 20,
        "media": []
      }
    ],
    "tmpls": [
      {
        "name": "Card 1",
        "ord": 0,
        "qfmt": "{{Front}}",
        "afmt": "{{FrontSide}}\n\n<hr id=answer>\n\n{{Back}}",
        "did": null,
        "bqfmt": "",
        "bafmt": ""
      },
      {
        "name": "Card 2",
        "ord": 1,
        "qfmt": "{{#Add Reverse}}{{Back}}{{/Add Reverse}}",
        "afmt": "{{FrontSide}}\n\n<hr id=answer>\n\n{{Front}}",
        "did": null,
        "bqfmt": "",
        "bafmt": ""
      }
    ],
    "tags": [],
    "id": "3",
    "req": [
      [
        0,
        "any",
        [
          0
        ]
      ],
      [
        1,
        "all",
        [
          1,
          2
        ]
      ]
    ]
  },
  "4": {
    "sortf": 0,
    "did": 1,
    "latexPre": "\\documentclass[12pt]{article}\n\\special{papersize=3in,5in}\n\\usepackage[utf8]{inputenc}\n\\usepackage{amssymb,amsmath}\n\\pagestyle{empty}\n\\setlength{\\parindent}{0in}\n\begin{document}\n",
    "latexPost": "\\end{document}",
    "mod": 0,
    "usn": -1,
    "vers": [],
    "type": 0,
    "css": ".card {\n font-family: arial;\n font-size: 20px;\n text-align: center;\n color: black;\n background-color: white;\n}\n",
    "name": "Basic (and reversed card)",
    "flds": [
      {
        "name": "Front",
        "ord": 0,
        "sticky": false,
        "rtl": false,
        "font": "Arial",
        "size": 20,
        "media": []
      },
      {
        "name": "Back",
        "ord": 1,
        "sticky": false,
        "rtl": false,
        "font": "Arial",
        "size": 20,
        "media": []
      }
    ],
    "tmpls": [
      {
        "name": "Card 1",
        "ord": 0,
        "qfmt": "{{Front}}",
        "afmt": "{{FrontSide}}\n\n<hr id=answer>\n\n{{Back}}",
        "did": null,
        "bqfmt": "",
        "bafmt": ""
      },
      {
        "name": "Card 2",
        "ord": 1,
        "qfmt": "{{Back}}",
        "afmt": "{{FrontSide}}\n\n<hr id=answer>\n\n{{Front}}",
        "did": null,
        "bqfmt": "",
        "bafmt": ""
      }
    ],
    "tags": [],
    "id": "4",
    "req": [
      [
        0,
        "any",
        [
          0
        ]
      ],
      [
        1,
        "any",
        [
          1
        ]
      ]
    ]
  },
  "5": {
    "sortf": 0,
    "did": 1,
    "latexPre": "\\documentclass[12pt]{article}\n\\special{papersize=3in,5in}\n\\usepackage[utf8]{inputenc}\n\\usepackage{amssymb,amsmath}\n\\pagestyle{empty}\n\\setlength{\\parindent}{0in}\n\begin{document}\n",
    "latexPost": "\\end{document}",
    "mod": 0,
    "usn": 92,
    "vers": [],
    "type": 0,
    "css": ".card {\n font-family: arial;\n font-size: 20px;\n text-align: center;\n color: black;\n background-color: white;\n}\n",
    "name": "Basic",
    "flds": [
      {
        "name": "Front",
        "ord": 0,
        "sticky": false,
        "rtl": false,
        "font": "Arial",
        "size": 20,
        "media": []
      },
      {
        "name": "Back",
        "ord": 1,
        "sticky": false,
        "rtl": false,
        "font": "Arial",
        "size": 20,
        "media": []
      }
    ],
    "tmpls": [
      {
        "name": "Card 1",
        "ord": 0,
        "qfmt": "{{Front}}",
        "afmt": "{{FrontSide}}\n\n<hr id=answer>\n\n{{Back}}",
        "did": null,
        "bqfmt": "",
        "bafmt": ""
      }
    ],
    "tags": [],
    "id": "5",
    "req": [
      [
        0,
        "all",
        [
          0
        ]
      ]
    ]
  }
}
